<svg id="check-circle" xmlns="http://www.w3.org/2000/svg" width="23" height="23" viewBox="0 0 23 23">
  <path id="check-circle-2" data-name="check-circle" d="M19.5,8A11.5,11.5,0,1,0,31,19.5,11.5,11.5,0,0,0,19.5,8Zm0,21.516A10.016,10.016,0,1,1,29.516,19.5,10.015,10.015,0,0,1,19.5,29.516Zm6.568-12.75-8.369,8.3a.556.556,0,0,1-.787,0L12.929,21.05a.556.556,0,0,1,0-.787l.4-.392a.556.556,0,0,1,.787,0l3.2,3.224,7.579-7.518a.556.556,0,0,1,.787,0l.392.4a.556.556,0,0,1,0,.787Z" transform="translate(-8 -8)" fill="#3497fd"/>
</svg>
