<svg id="Component_107_1" data-name="Component 107 – 1" xmlns="http://www.w3.org/2000/svg" xmlns:xlink="http://www.w3.org/1999/xlink" width="282.75" height="190.159" viewBox="0 0 282.75 190.159">
  <defs>
    <clipPath id="clip-path">
      <rect id="Rectangle_449" data-name="Rectangle 449" width="282.75" height="190.159" transform="translate(0 0)" fill="none"/>
    </clipPath>
  </defs>
  <g id="Group_749" data-name="Group 749" clip-path="url(#clip-path)">
    <path id="Path_791" data-name="Path 791" d="M550.455,1792.218a32.219,32.219,0,0,1,.566-5.25c.74-3.958,3.112-4.55,3.112-4.55l-2.161-9.371c-1.664.2-8.186,1.4-8.186,1.4s.2,1.984.481,4.5l2-.5a7.753,7.753,0,0,0-1.425,5.4c.274,2.151.552,4.067.77,4.952.519,2.111,1.139,6.7,3.055,6.927,1.174.136,1.776-2.49,1.783-3.511" transform="translate(-492.424 -1605.576)" fill="#072951" fill-rule="evenodd"/>
    <path id="Path_792" data-name="Path 792" d="M1492.187,530.524a1.555,1.555,0,0,0-.085-.151c-.017-.026-.031-.052-.046-.078a1.107,1.107,0,0,1,0-.808,2.307,2.307,0,0,0,.142-.742,1.6,1.6,0,0,0-.132-.355c-.062-.124-.139-.253-.221-.391s-.18-.306-.27-.482l0-.009a.675.675,0,0,1-.065-.693.982.982,0,0,0,.068-.542,1.911,1.911,0,0,0-.131-.447c-.1-.208-.485-.748-.5-.784l-.129-.155c-.082-.288-.22-.31.363-.859l.047-.044c.452-.421.645-.429.321-.9-.184-.266-.911-.219-1.193-.192a25.681,25.681,0,0,0-3.292,1.522,11.178,11.178,0,0,0-2.662.708,18.253,18.253,0,0,0-1.566,1.414,15.256,15.256,0,0,0-1.076,1.473c-.458.745-1.568,5.724-1.895,6.523-.006.012-.587,1.116-.632,1.181-.289.422-1.191,1.034-1.479,1.443l-.024.035c-.313.446-.636.906-.952,1.369v0a3.19,3.19,0,0,0,.114.651,3.868,3.868,0,0,0,.269.687c.067.136.145.276.232.415a3.563,3.563,0,0,0,2.258,1.808c.212-.228,8.74-6.181,8.74-6.181.675-.569,1.594-1.456,2.347-2.082a3.432,3.432,0,0,0,1.014-1.242c.315-.716.754-1.16.6-1.689a2.489,2.489,0,0,0-.16-.411" transform="translate(-1337.285 -473.486)" fill="#fad6c2"/>
    <path id="Path_793" data-name="Path 793" d="M1604.155,543.352a.182.182,0,0,0-.029-.044.149.149,0,0,0-.218-.009l-1.815,1.829a.171.171,0,0,0,0,.23.148.148,0,0,0,.218.009l1.815-1.828a.167.167,0,0,0,.031-.186" transform="translate(-1450.729 -491.943)" fill="#072951"/>
    <path id="Path_794" data-name="Path 794" d="M1600.273,543.593a.362.362,0,0,1-.352-.113.383.383,0,0,1,.008-.518l1.816-1.83a.358.358,0,0,1,.264-.105.365.365,0,0,1,.261.123.405.405,0,0,1,.063.1.379.379,0,0,1-.074.421l-1.815,1.828a.355.355,0,0,1-.172.1" transform="translate(-1448.715 -489.925)" fill="#072951"/>
    <path id="Path_795" data-name="Path 795" d="M1612.6,567.266a.166.166,0,0,0-.031-.047.147.147,0,0,0-.218,0c-.114.119-.441.431-.788.761-.591.562-.982.937-1.062,1.041a.171.171,0,0,0,.025.229.146.146,0,0,0,.216-.02c.071-.092.6-.6,1.03-1.005.349-.332.679-.646.8-.772a.169.169,0,0,0,.029-.183" transform="translate(-1458.353 -513.598)" fill="#072951"/>
    <path id="Path_796" data-name="Path 796" d="M1608.682,567.468l-.043.007a.364.364,0,0,1-.276-.089.381.381,0,0,1-.054-.515c.084-.11.389-.4,1.085-1.066.3-.282.665-.633.78-.754a.356.356,0,0,1,.26-.111.366.366,0,0,1,.264.117.386.386,0,0,1,.07.1.381.381,0,0,1-.069.415c-.121.127-.444.435-.787.76l-.019.018c-.356.339-.943.9-1.008.981a.356.356,0,0,1-.2.131m-.131-.387h0m1.844-1.795h0" transform="translate(-1456.33 -511.579)" fill="#072951"/>
    <path id="Path_797" data-name="Path 797" d="M1619.094,595.887a.162.162,0,0,0-.065-.075.147.147,0,0,0-.208.059c-.059.109-.67.775-1.034,1.172-.3.322-.479.523-.531.591a.171.171,0,0,0,.024.229.147.147,0,0,0,.216-.019c.047-.061.273-.309.515-.571a13.058,13.058,0,0,0,1.08-1.238.171.171,0,0,0,0-.147" transform="translate(-1464.47 -539.515)" fill="#072951"/>
    <path id="Path_798" data-name="Path 798" d="M1615.439,596.089a.352.352,0,0,1-.045.008.363.363,0,0,1-.274-.089.381.381,0,0,1-.052-.515c.056-.072.208-.24.543-.605.28-.305.936-1.02,1.005-1.133a.357.357,0,0,1,.218-.175.364.364,0,0,1,.282.039.372.372,0,0,1,.149.17.383.383,0,0,1-.009.329,11.1,11.1,0,0,1-1.112,1.284c-.3.327-.47.514-.5.557a.36.36,0,0,1-.2.131m1.548-2.135v0" transform="translate(-1462.449 -537.502)" fill="#072951"/>
    <path id="Path_799" data-name="Path 799" d="M1452.447,655l4.932-5.009,4.8,4.129-4.826,5.074Z" transform="translate(-1315.258 -588.601)" fill="#fff"/>
    <path id="Path_800" data-name="Path 800" d="M1224.959,667.786c2.2-2.441,22.725-20.754,22.725-20.754l6.132,5.987s-14.6,15.984-21.3,21.946c-6.015,5.352-11.147-3.2-7.559-7.178" transform="translate(-1108.182 -585.917)" fill="#004486"/>
    <path id="Path_801" data-name="Path 801" d="M701.49,585.942c3.163-2.266,16.713-10.274,22.277-14.163,5.249-3.665,10.608,4.541,5.848,8.032-3.441,2.523-13.555,9.139-22.483,14.757-7.1,4.465-10.172-5.38-5.641-8.625" transform="translate(-633.303 -516.937)" fill="#004486"/>
    <path id="Path_802" data-name="Path 802" d="M1045.407,660.818c-2.551-2.938-13.2-15.363-17.593-20.54-4.139-4.883,2.415-12.123,6.335-7.71,2.834,3.19,12.139,13.263,18.567,21.627,5.108,6.648-3.654,10.831-7.308,6.622" transform="translate(-929.536 -571.579)" fill="#004486"/>
    <path id="Path_803" data-name="Path 803" d="M883.874,211.035c.662,3,5.61,10.009,5.61,10.009s.63,5.818.816,8.423c1.531,3.506,3.695.542,8.978-.294-.272-1.967.513-9.482,3.052-8.882,2.777.37,6.545.447,7.661-2.193,1.439-3.892.44-8.952-.225-12.222-.729-3.58-3.793-10.827-3.793-10.827s-7.853-6.223-14.081-5.238c-9.359,1.481-10.771,8.753-8.017,21.223" transform="translate(-799.255 -171.787)" fill="#fad6c2"/>
    <path id="Path_804" data-name="Path 804" d="M1109.356,304.5a1.731,1.731,0,0,1,.385-.92,1.828,1.828,0,0,1,.668-.512,1.945,1.945,0,0,1,.793-.185,1.787,1.787,0,0,1,.858.193.21.21,0,0,1,.1.2c-.007.057-.039.093-.08.095h0a3.44,3.44,0,0,0-.724.114,3.731,3.731,0,0,0-.667.256,3.85,3.85,0,0,0-.6.387,2.524,2.524,0,0,0-.516.539l-.005.008c-.037.053-.108.043-.158-.023a.225.225,0,0,1-.044-.152" transform="translate(-1004.573 -274.274)" fill="#072951"/>
    <path id="Path_805" data-name="Path 805" d="M1168.416,354.868l.738,3.618s1.872-.53,1.771-.648l-2.509-2.969" transform="translate(-1058.055 -321.349)" fill="#fad6c2"/>
    <path id="Path_806" data-name="Path 806" d="M1127.2,337.08c.145.675.607,1.148,1.032,1.057s.652-.712.507-1.387-.607-1.149-1.032-1.058-.652.713-.507,1.389" transform="translate(-1020.695 -303.974)" fill="#072951"/>
    <path id="Path_807" data-name="Path 807" d="M1153.424,425.5a1.824,1.824,0,0,1-1.97-.091c-.554-.317-.822-.684-.636-.854.129-.117.578.009,1.369.229a4.436,4.436,0,0,0,.97.144c.339.03.439.3.267.572" transform="translate(-1042.066 -384.416)" fill="#072951"/>
    <path id="Path_808" data-name="Path 808" d="M890.645,193.173l.512-3.014-.969-2.3a5.835,5.835,0,0,1-1.883,1.705,2.288,2.288,0,0,1-1.073.016c-3.307-1.456-8.308-1.818-11.86-1.651-2.826.133-4.712,2.463-8.113,5.242a34.108,34.108,0,0,0-1.472,7.583c-.143,3.117,3.64,11.124,3.64,11.124.347.666,4.79,7.7,4.79,7.7l3.992-6.9a25.145,25.145,0,0,1,.695-4.8c.436-.87,2.026-.1,2.026-.1l1.594-.143s-.087-1.325-.293-3.577l2.574-7.8s5.01-2.537,5.755-2.995l.068.011.011-.063.013-.012c0-.011,0-.022-.005-.033" transform="translate(-784.005 -170.117)" fill="#072951"/>
    <path id="Path_809" data-name="Path 809" d="M945.231,538.9l1-4.306,11.6,7.2,1.682,3.172-.286,3.941,5.744,19.824-17.717.74Z" transform="translate(-855.951 -484.101)" fill="#fff"/>
    <path id="Path_810" data-name="Path 810" d="M879.135,1286.014c-3.116,10.237-4,26.094-6.224,34.967s8.7,17.513,12.206,7.685,10.713-37.5,10.713-37.5c4.873-15.038-13.58-15.386-16.7-5.15" transform="translate(-790.194 -1158.192)" fill="#004486"/>
    <path id="Path_811" data-name="Path 811" d="M839.571,633.091c8.625-6.616,6.8-21.49,5.1-36.948-1.416-12.855-2.876-25.058.4-31.7,1.412-2.863,4.6-9.4,4.6-9.4s16.124,19,18.906,24.882c7.712,16.3,8.683,41.513,7.6,42.828-1.31,1.595-8.914,8.389-14.149,10.356s-16.589,1.4-22.458-.018" transform="translate(-760.271 -502.617)" fill="#004486"/>
    <path id="Path_812" data-name="Path 812" d="M847.731,759.934a.449.449,0,0,1-.15.025,58.466,58.466,0,0,1-12.477-1.3.455.455,0,0,1-.17-.8c8.256-6.333,6.684-20.571,5.02-35.645l-.214-1.94c-1.13-10.229-2.2-19.891-.816-26.687a.455.455,0,0,1,.891.181c-1.352,6.656-.293,16.249.829,26.406l.214,1.94c1.644,14.89,3.2,28.977-4.639,35.866a60.166,60.166,0,0,0,11.365,1.074.455.455,0,0,1,.147.884" transform="translate(-755.912 -627.741)" fill="#072951"/>
    <path id="Path_813" data-name="Path 813" d="M1005.235,1278.366a26.887,26.887,0,0,1-7.082,1.183.455.455,0,1,1-.048-.908,25.935,25.935,0,0,0,6.942-1.172c7.292-2.6,12.521-8.476,13.95-10.217a.455.455,0,0,1,.7.577c-1.467,1.786-6.835,7.821-14.348,10.5l-.116.041" transform="translate(-903.44 -1147.405)" fill="#072951"/>
    <path id="Path_814" data-name="Path 814" d="M620.893,1733.217s15.608-1.416,28.308-3.289c7.921-1.168,4.077-13.9-2.412-12.921-10.611,1.606-28.961,5.325-28.961,5.325Z" transform="translate(-559.472 -1554.781)" fill="#004486"/>
    <path id="Path_815" data-name="Path 815" d="M646.138,1428.179a6.8,6.8,0,0,1-1.229.3c-12.567,1.853-28.177,3.277-28.333,3.292a.455.455,0,0,1-.479-.33l-3.065-10.884a.455.455,0,0,1,.347-.569c.136-.028,13.613-2.755,24.036-4.528,1.214-4.885,2.341-12.61,3.432-20.084.5-3.426,1.017-6.968,1.526-10.113a.455.455,0,1,1,.9.145c-.508,3.138-1.025,6.677-1.524,10.1-1.1,7.547-2.24,15.351-3.475,20.274-.009.035-.017.071-.024.106l-.016.072a.454.454,0,0,1-.367.346c-9.342,1.582-21.3,3.969-23.824,4.477l2.83,10.048c2.458-.229,16.452-1.562,27.907-3.251a5.286,5.286,0,0,0,1.924-.649l.038-.02a6.151,6.151,0,0,0,2.872-3.708c2.308-6.464,6.845-23.874,9.556-34.276.53-2.033.979-3.759,1.314-5.023a.455.455,0,0,1,.879.232c-.334,1.264-.784,2.989-1.313,5.02-2.715,10.417-7.258,27.851-9.58,34.353a6.937,6.937,0,0,1-3.323,4.217,5.652,5.652,0,0,1-1.005.458" transform="translate(-555.113 -1252.878)" fill="#072951"/>
    <path id="Path_816" data-name="Path 816" d="M1071.968,610.675l-.788,5.646,1.665.959-.637,3.9,5.342,7.441-2.983-11.28.218-1.337Z" transform="translate(-970.004 -552.995)" fill="#00c7b1"/>
    <path id="Path_817" data-name="Path 817" d="M1716.177,1659.957l-7.475-4.291,2.13-7.9,9.266,5.142Z" transform="translate(-1547.309 -1492.127)" fill="#626262"/>
    <path id="Path_818" data-name="Path 818" d="M927.378,1125.739c-3.371,1.582-4.891,7.243-3.877,10.362.978,3.008,14.778,9.9,14.778,9.9l30.1,12.212s6.87-.706,7.918-2.832c2.474-5.018-.924-7.879-3.958-9.68-5.966-3.542-21.52-12.174-27.952-15.024-5.369-2.378-12.635-6.991-17.014-4.937" transform="translate(-835.992 -1018.944)" fill="#004486"/>
    <path id="Path_819" data-name="Path 819" d="M1764.488,1620.072a33.416,33.416,0,0,1-4.279,3.418c-3.454,2.346-5.622,1.033-5.622,1.033l-5.32,8.436c1.366,1.076,7.011,5,7.011,5s1.314-1.6,2.962-3.642l-1.831-1.112a8.04,8.04,0,0,0,5.015-2.9c1.384-1.773,2.59-3.377,3.083-4.184,1.175-1.924,4.1-5.736,2.868-7.309-.757-.963-3.13.511-3.887,1.253" transform="translate(-1584.042 -1465.63)" fill="#072951" fill-rule="evenodd"/>
    <path id="Path_820" data-name="Path 820" d="M1362.9,1361.019l33.3,28.915,6.609-8.825-30.96-30.01c-6.564-6.044-16.288,5.036-8.953,9.921" transform="translate(-1231.793 -1221.889)" fill="#004486"/>
    <path id="Path_821" data-name="Path 821" d="M1080.018,1283.158a.455.455,0,0,1-.1-.067l-33.26-28.877c-1.083-.5-19.11-8.21-28.729-12.032a.377.377,0,0,1-.048-.022,65.271,65.271,0,0,1-6.324-3.111.455.455,0,0,1,.465-.781c2.326,1.385,6.039,2.955,6.268,3.08,8.654,3.438,28.535,11.876,28.875,12.108a.46.46,0,0,1,.046.035l32.934,28.594,6.076-8.114-30.672-29.732a39.015,39.015,0,0,0-3.619-2.389c-3.633-2.157-11.17-6.4-17.983-10.02a.455.455,0,1,1,.427-.8c6.824,3.625,14.378,7.878,18.02,10.041a41.059,41.059,0,0,1,3.779,2.51l30.969,30.018a.455.455,0,0,1,.047.6l-6.609,8.825a.452.452,0,0,1-.315.179.458.458,0,0,1-.244-.041" transform="translate(-915.808 -1114.703)" fill="#072951"/>
    <path id="Path_822" data-name="Path 822" d="M979.58,367.293a3.141,3.141,0,0,0,3.353.678l-1.5-7.45c-4.73-.789-4.443,4.616-1.856,6.772" transform="translate(-885.382 -326.399)" fill="#fad6c2"/>
    <path id="Path_823" data-name="Path 823" d="M1153.342,869.831c.189.911-.088,1.738-.62,1.849s-1.115-.539-1.3-1.449.088-1.738.619-1.848,1.115.538,1.3,1.449" transform="translate(-1042.609 -786.349)" fill="#072951"/>
    <path id="Path_824" data-name="Path 824" d="M1179.039,971.007c.189.911-.088,1.738-.62,1.849s-1.115-.538-1.3-1.449.088-1.738.62-1.849,1.115.539,1.3,1.449" transform="translate(-1065.879 -877.969)" fill="#072951"/>
    <path id="Path_825" data-name="Path 825" d="M1197.389,1062.558c.1.924-.251,1.722-.79,1.782s-1.06-.641-1.162-1.565.251-1.722.79-1.782,1.06.641,1.163,1.565" transform="translate(-1082.507 -960.775)" fill="#072951"/>
    <path id="Path_826" data-name="Path 826" d="M817.734,680.968a.457.457,0,0,1-.132.124l-17.981,11.143a.455.455,0,1,1-.479-.773l17.981-11.143a.455.455,0,0,1,.611.649" transform="translate(-723.466 -615.998)" fill="#072951"/>
    <path id="Path_827" data-name="Path 827" d="M971.7,615.037a.454.454,0,0,1-.439-.08L960.241,605.8a.455.455,0,0,1-.151-.46l.767-3.063-5.058-1.669a.454.454,0,0,1-.312-.455l.271-5.234a.455.455,0,1,1,.908.047l-.253,4.887,5.13,1.693a.455.455,0,0,1,.3.542l-.8,3.2,10.805,8.974a.454.454,0,0,1,.059.64.45.45,0,0,1-.2.139" transform="translate(-865.238 -538.336)" fill="#072951"/>
    <path id="Path_828" data-name="Path 828" d="M201.262,0l8.532,31.862L0,97.74l14.978,56.711L225.69,88.805l8.843,30.075L282.75,39.221Z" transform="translate(0 0.002)" fill="#00a0e9"/>
    <path id="Path_829" data-name="Path 829" d="M655.684,1079.658c.032-.844-.225-.918-.462-1.723-.076-.258-1.128-3.178-1.719-4.534-.411-1.053-.972-2.254-.972-2.254l-5.906-.493s-2.41,9.862-2.713,11.448c-.068.353-.194.861.117,1.139.558.5.873-.3,1.017-.7.335-.925.643-1.881.9-2.83.231.234-.553,3.062-.691,3.717a6.61,6.61,0,0,0-.4,2.686.6.6,0,0,0,1.069.211,39.9,39.9,0,0,0,1.638-5.139c.209.354-.265,2.1-.362,2.556a20.94,20.94,0,0,0-.679,4.012.66.66,0,0,0,.8.449c.342-.127,1-2.238,1.2-2.884.095-.3.975-3.275.932-3.29.223.075-.555,3.268-.425,3.776.088.345.383.765.789.617.3-.111.448-.57.533-.84.144-.459,2.493-8.568,2.515-8.86a30.685,30.685,0,0,0,1.773,3.171c.23.276,1.007.615,1.039-.235" transform="translate(-583.019 -969.527)" fill="#fad6c2" fill-rule="evenodd"/>
    <path id="Path_830" data-name="Path 830" d="M677.34,1047.839l-7.207-.9.81-3.873,7.126,1.111Z" transform="translate(-606.836 -944.542)" fill="#fff"/>
    <path id="Path_831" data-name="Path 831" d="M665,753.735l8.418.469s4.205-21.284,4.641-24.716-.19-8.092-4.313-8.253c-5.332-.209-5.321,4.424-5.993,7.439S665,753.735,665,753.735" transform="translate(-602.188 -653.105)" fill="#004486"/>
  </g>
</svg>
